{
	"config": [
		{
			"name": "fake_backplaneSerial",
			"type": "String",
			"value": ""
		},
		{
			"name": "sisal.environment",
			"type": "String",
			"value": "SIT"
		},
		{
			"name": "sisal.offline.test.mode",
			"type": "Boolean",
			"value": "false"
		},
		{
			"name": "sisal.services.offline.test.mode",
			"type": "Boolean",
			"value": "false"
		},
		{
			"name": "wait_before_rety",
			"type": "Integer",
			"value": "20000"
		},
		{
			"name": "retry_limit",
			"type": "Integer",
			"value": "10"
		},
		{
			"name": "selection_threshold_MI",
			"type": "Integer",
			"value": "99"
		},
		{
			"name": "override_properties_file",
			"type": "String",
			"value": "/var/persistentsisalconf/terminalenv/environment.json"
		},
		{
			"name": "bitmap_width_wave",
			"type": "Integer",
			"value": "640",
			"description": "Bitmap width in pixels (WAVE and FUSION devices)"
		},
		{
			"name": "bitmap_width_bigtouch",
			"type": "Integer",
			"value": "384",
			"description": "Bitmap width in pixels (BIGTOUCH devices)"
		},
		{
			"name": "sisal.environment.PING",
			"type": "Struct",
			"structuredValue": {
				"envlist": [
					{
						"environment": "DEV",
						"arealist": [
							{
								"area": "MI",
								"addresslist": [
									{
										"address": "10.7.3.1"
									}
								]
							},
							{
								"area": "RO",
								"addresslist": [
									{
										"address": "10.7.3.1"
									}
								]
							}
						]
					},
					{
						"environment": "SIT",
						"arealist": [
							{
								"area": "MI",
								"addresslist": [
									{
										"address": "10.7.3.1"
									}
								]
							},
							{
								"area": "RO",
								"addresslist": [
									{
										"address": "10.7.3.1"
									}
								]
							}
						]
					},
					{
						"environment": "PRE_PROD",
						"arealist": [
							{
								"area": "MI",
								"addresslist": [
									{
										"address": "10.7.3.1"
									}
								]
							},
							{
								"area": "RO",
								"addresslist": [
									{
										"address": "10.7.3.1"
									}
								]
							}
						]
					},
					{
						"environment": "PROD",
						"arealist": [
							{
								"area": "MI",
								"addresslist": [
									{
										"address": "10.7.0.1"
									}
								]
							},
							{
								"area": "RO",
								"addresslist": [
									{
										"address": "10.7.0.1"
									}
								]
							}
						]
					}
				]
			}
		},
		{
			"name": "sisal.environment.IS",
			"type": "Struct",
			"structuredValue": {
				"envlist": [
					{
						"environment": "DEV",
						"arealist": [
							{
								"area": "MI",
								"addresslist": [
									{
										"address": "is-pgtdev.sisal.it"
									}
								]
							},
							{
								"area": "RO",
								"addresslist": [
									{
										"address": "is-pgtdev.sisal.it"
									}
								]
							}
						]
					},
					{
						"environment": "SIT",
						"arealist": [
							{
								"area": "MI",
								"addresslist": [
									{
										"address": "is-pgtsitnat.dpaytst.local"
									}
								]
							},
							{
								"area": "RO",
								"addresslist": [
									{
										"address": "is-pgtsitdrnat.dpaytst.local"
									}
								]
							}
						]
					},
					{
						"environment": "PRE_PROD",
						"arealist": [
							{
								"area": "MI",
								"addresslist": [
									{
										"address": "is-pgtcoll.dpaycoll.local"
									}
								]
							},
							{
								"area": "RO",
								"addresslist": [
									{
										"address": "is-pgtcoll.dpaycoll.local"
									}
								]
							}
						]
					},
					{
						"environment": "PROD",
						"arealist": [
							{
								"area": "MI",
								"addresslist": [
									{
										"address": "is-pgt-nat.sisalgroupad.local"
									}
								]
							},
							{
								"area": "RO",
								"addresslist": [
									{
										"address": "is-pgt-nat.sisalgroupad.local"
									}
								]
							}
						]
					}
				]
			}
		},
		{
			"name": "sisal.environment.AM",
			"type": "Struct",
			"structuredValue": {
				"envlist": [
					{
						"environment": "DEV",
						"arealist": [
							{
								"area": "MI",
								"addresslist": [
									{
										"address": "am-pgtdev.sisal.it"
									}
								]
							},
							{
								"area": "RO",
								"addresslist": [
									{
										"address": "am-pgtdev.sisal.it"
									}
								]
							}
						]
					},
					{
						"environment": "SIT",
						"arealist": [
							{
								"area": "MI",
								"addresslist": [
									{
										"address": "am-pgtsitnat.dpaytst.local"
									}
								]
							},
							{
								"area": "RO",
								"addresslist": [
									{
										"address": "am-pgtsitdrnat.dpaytst.local"
									}
								]
							}
						]
					},
					{
						"environment": "PRE_PROD",
						"arealist": [
							{
								"area": "MI",
								"addresslist": [
									{
										"address": "am-pgtcoll.dpaycoll.local"
									}
								]
							},
							{
								"area": "RO",
								"addresslist": [
									{
										"address": "am-pgtcoll.dpaycoll.local"
									}
								]
							}
						]
					},
					{
						"environment": "PROD",
						"arealist": [
							{
								"area": "MI",
								"addresslist": [
									{
										"address": "am-pgt-nat.sisalgroupad.local"
									}
								]
							},
							{
								"area": "RO",
								"addresslist": [
									{
										"address": "am-pgt-nat.sisalgroupad.local"
									}
								]
							}
						]
					}
				]
			}
		},
		{
			"name": "sisal.environment.ST_RES",
			"type": "Struct",
			"structuredValue": {
				"envlist": [
					{
						"environment": "DEV",
						"arealist": [
							{
								"area": "MI",
								"addresslist": [
									{
										"address": "am-pgtdev.sisal.it"
									}
								]
							},
							{
								"area": "RO",
								"addresslist": [
									{
										"address": "am-pgtdev.sisal.it"
									}
								]
							}
						]
					},
					{
						"environment": "SIT",
						"arealist": [
							{
								"area": "MI",
								"addresslist": [
									{
										"address": "am-pgtsitnat.dpaytst.local"
									}
								]
							},
							{
								"area": "RO",
								"addresslist": [
									{
										"address": "am-pgtsitdrnat.dpaytst.local"
									}
								]
							}
						]
					},
					{
						"environment": "PRE_PROD",
						"arealist": [
							{
								"area": "MI",
								"addresslist": [
									{
										"address": "am-pgtcoll.dpaycoll.local"
									}
								]
							},
							{
								"area": "RO",
								"addresslist": [
									{
										"address": "am-pgtcoll.dpaycoll.local"
									}
								]
							}
						]
					},
					{
						"environment": "PROD",
						"arealist": [
							{
								"area": "MI",
								"addresslist": [
									{
										"address": "am-pgt-nat.sisalgroupad.local"
									}
								]
							},
							{
								"area": "RO",
								"addresslist": [
									{
										"address": "am-pgt-nat.sisalgroupad.local"
									}
								]
							}
						]
					}
				]
			}
		},
		{
			"name": "sisal.environment.BACHECA",
			"type": "Struct",
			"structuredValue": {
				"envlist": [
					{
						"environment": "DEV",
						"arealist": [
							{
								"area": "MI",
								"addresslist": [
									{
										"address": "am-pgtdev.sisal.it"
									}
								]
							},
							{
								"area": "RO",
								"addresslist": [
									{
										"address": "am-pgtdev.sisal.it"
									}
								]
							}
						]
					},
					{
						"environment": "SIT",
						"arealist": [
							{
								"area": "MI",
								"addresslist": [
									{
										"address": "bacheca.dpaytst.local"
									}
								]
							},
							{
								"area": "RO",
								"addresslist": [
									{
										"address": "bachecadr.dpaytst.local"
									}
								]
							}
						]
					},
					{
						"environment": "PRE_PROD",
						"arealist": [
							{
								"area": "MI",
								"addresslist": [
									{
										"address": "bacheca.dpaycoll.local"
									}
								]
							},
							{
								"area": "RO",
								"addresslist": [
									{
										"address": "bachecadr.dpaycoll.local"
									}
								]
							}
						]
					},
					{
						"environment": "PROD",
						"arealist": [
							{
								"area": "MI",
								"addresslist": [
									{
										"address": "bacheca.sisalgroupad.local"
									}
								]
							},
							{
								"area": "RO",
								"addresslist": [
									{
										"address": "bachecadr.sisalgroupad.local"
									}
								]
							}
						]
					}
				]
			}
		},
		{
			"name": "sisal.environment.PGT",
			"type": "Struct",
			"structuredValue": {
				"envlist": [
					{
						"environment": "DEV",
						"arealist": [
							{
								"area": "MI",
								"addresslist": [
									{
										"address": "sgtgsvil01.sisal.it"
									},
									{
										"address": "sgtgsvil01.sisal.it"
									}
								]
							},
							{
								"area": "RO",
								"addresslist": [
									{
										"address": "sgtgsvil01.sisal.it"
									},
									{
										"address": "sgtgsvil01.sisal.it"
									}
								]
							}
						]
					},
					{
						"environment": "SIT",
						"arealist": [
							{
								"area": "MI",
								"addresslist": [
									{
										"address": "brk1-pgtsitnat.dpaytst.local"
									},
									{
										"address": "brk2-pgtsitnat.dpaytst.local"
									}
								]
							},
							{
								"area": "RO",
								"addresslist": [
									{
										"address": "brk1-pgtsitdrnat.dpaytst.local"
									},
									{
										"address": "brk2-pgtsitdrnat.dpaytst.local"
									}
								]
							}
						]
					},
					{
						"environment": "PRE_PROD",
						"arealist": [
							{
								"area": "MI",
								"addresslist": [
									{
										"address": "brk1-pgtcoll.dpaycoll.local"
									},
									{
										"address": "brk2-pgtcoll.dpaycoll.local"
									},
									{
										"address": "brk3-pgtcoll.dpaycoll.local"
									},
									{
										"address": "brk4-pgtcoll.dpaycoll.local"
									},
									{
										"address": "brk5-pgtcoll.dpaycoll.local"
									},
									{
										"address": "brk6-pgtcoll.dpaycoll.local"
									}
								]
							},
							{
								"area": "RO",
								"addresslist": [
									{
										"address": "brk1-pgtcoll.dpaycoll.local"
									},
									{
										"address": "brk2-pgtcoll.dpaycoll.local"
									},
									{
										"address": "brk3-pgtcoll.dpaycoll.local"
									},
									{
										"address": "brk4-pgtcoll.dpaycoll.local"
									},
									{
										"address": "brk5-pgtcoll.dpaycoll.local"
									},
									{
										"address": "brk6-pgtcoll.dpaycoll.local"
									}
								]
							}
						]
					},
					{
						"environment": "PROD",
						"arealist": [
							{
								"area": "MI",
								"addresslist": [
									{
										"address": "brk1-pgt-nat.sisalgroupad.local"
									},
									{
										"address": "brk2-pgt-nat.sisalgroupad.local"
									},
									{
										"address": "brk3-pgt-nat.sisalgroupad.local"
									},
									{
										"address": "brk4-pgt-nat.sisalgroupad.local"
									},
									{
										"address": "brk5-pgt-nat.sisalgroupad.local"
									},
									{
										"address": "brk6-pgt-nat.sisalgroupad.local"
									}
								]
							},
							{
								"area": "RO",
								"addresslist": [
									{
										"address": "brk1-pgt-nat.sisalgroupad.local"
									},
									{
										"address": "brk2-pgt-nat.sisalgroupad.local"
									},
									{
										"address": "brk3-pgt-nat.sisalgroupad.local"
									},
									{
										"address": "brk4-pgt-nat.sisalgroupad.local"
									},
									{
										"address": "brk5-pgt-nat.sisalgroupad.local"
									},
									{
										"address": "brk6-pgt-nat.sisalgroupad.local"
									}
								]
							}
						]
					}
				]
			}
		},
		{
			"name": "sisal.environment.LOTTERY",
			"type": "Struct",
			"structuredValue": {
				"envlist": [
					{
						"environment": "DEV",
						"arealist": [
							{
								"area": "MI",
								"addresslist": [
									{
										"address": "brk1-lotsitnat.dpaytst.local"
									},
									{
										"address": "brk1-lotsitnat.dpaytst.local"
									}
								]
							},
							{
								"area": "RO",
								"addresslist": [
									{
										"address": "brk1-lotsitnat.dpaytst.local"
									},
									{
										"address": "brk1-lotsitnat.dpaytst.local"
									}
								]
							}
						]
					},
					{
						"environment": "SIT",
						"arealist": [
							{
								"area": "MI",
								"addresslist": [
									{
										"address": "brk1-lotsitnat.dpaytst.local"
									},
									{
										"address": "brk1-lotsitnat.dpaytst.local"
									}
								]
							},
							{
								"area": "RO",
								"addresslist": [
									{
										"address": "brk2-lotsitnat.dpaytst.local"
									},
									{
										"address": "brk2-lotsitnat.dpaytst.local"
									}
								]
							}
						]
					},
					{
						"environment": "PRE_PROD",
						"arealist": [
							{
								"area": "MI",
								"addresslist": [
									{
										"address": "brk1-lotcoll.dpaycoll.local"
									},
									{
										"address": "brk2-lotcoll.dpaycoll.local"
									}
								]
							},
							{
								"area": "RO",
								"addresslist": [
									{
										"address": "brk1-lotcoll.dpaycoll.local"
									},
									{
										"address": "brk2-lotcoll.dpaycoll.local"
									}
								]
							}
						]
					},
					{
						"environment": "PROD",
						"arealist": [
							{
								"area": "MI",
								"addresslist": [
									{
										"address": "brk1-lott-nat.sisalgroupad.local"
									}
								]
							},
							{
								"area": "RO",
								"addresslist": [
									{
										"address": "brk1-lott-nat.sisalgroupad.local"
									}
								]
							}
						]
					}
				]
			}
		},
		{
			"name": "sisal.environment.PERSEO",
			"type": "Struct",
			"structuredValue": {
				"envlist": [
					{
						"environment": "DEV",
						"arealist": [
							{
								"area": "MI",
								"addresslist": [
									{
										"address": "brk1-lstsitnat.dpaytst.local"
									},
									{
										"address": "brk1-lstsitnat.dpaytst.local"
									}
								]
							},
							{
								"area": "RO",
								"addresslist": [
									{
										"address": "brk1-lstsitnat.dpaytst.local"
									},
									{
										"address": "brk1-lstsitnat.dpaytst.local"
									}
								]
							}
						]
					},
					{
						"environment": "SIT",
						"arealist": [
							{
								"area": "MI",
								"addresslist": [
									{
										"address": "brk1-npssitnat.dpaytst.local"
									},
									{
										"address": "brk1-npssitnat.dpaytst.local"
									}
								]
							},
							{
								"area": "RO",
								"addresslist": [
									{
										"address": "brk1-npssitdrnat.dpaytst.local"
									},
									{
										"address": "brk1-npssitdrnat.dpaytst.local"
									}
								]
							}
						]
					},
					{
						"environment": "PRE_PROD",
						"arealist": [
							{
								"area": "MI",
								"addresslist": [
									{
										"address": "brk1-paycoll.dpaycoll.local"
									},
									{
										"address": "brk2-paycoll.dpaycoll.local"
									}
								]
							},
							{
								"area": "RO",
								"addresslist": [
									{
										"address": "brk1-paycoll.dpaycoll.local"
									},
									{
										"address": "brk2-paycoll.dpaycoll.local"
									}
								]
							}
						]
					},
					{
						"environment": "PROD",
						"arealist": [
							{
								"area": "MI",
								"addresslist": [
									{
										"address": "brk1-pay-nat.sisalgroupad.local"
									}
								]
							},
							{
								"area": "RO",
								"addresslist": [
									{
										"address": "brk1-pay-nat.sisalgroupad.local"
									}
								]
							}
						]
					}
				]
			}
		},
		{
		    "name": "sisal.environment.IPCB2",
		    "type": "Struct",
		    "structuredValue": {
		        "envlist": [
		            {
		                "environment": "DEV",
		                "arealist": [
		                    {
		                        "area": "MI",
		                        "addresslist": [
		                            {
		                                "address": "010.000.011.050"
		                            }
		                        ]
		                    },
		                    {
		                        "area": "RO",
		                        "addresslist": [
		                            {
		                                "address": "010.000.011.050"
		                            }
		                        ]
		                    }
		                ]
		            },
		            {
		                "environment": "SIT",
		                "arealist": [
		                    {
		                        "area": "MI",
		                        "addresslist": [
		                            {
		                                "address": "010.007.003.041"
		                            }
		                        ]
		                    },
		                    {
		                        "area": "RO",
		                        "addresslist": [
		                            {
		                                "address": "010.007.003.041"
		                            }
		                        ]
		                    }
		                ]
		            },
		            {
		                "environment": "PRE_PROD",
		                "arealist": [
		                    {
		                        "area": "MI",
		                        "addresslist": [
		                            {
		                                "address": "010.007.003.041"
		                            }
		                        ]
		                    },
		                    {
		                        "area": "RO",
		                        "addresslist": [
		                            {
		                                "address": "010.007.003.041"
		                            }
		                        ]
		                    }
		                ]
		            },
		            {
		                "environment": "PROD",
		                "arealist": [
		                    {
		                        "area": "MI",
		                        "addresslist": [
		                            {
		                                "address": "010.007.000.077"
		                            }
		                        ]
		                    },
		                    {
		                        "area": "RO",
		                        "addresslist": [
		                            {
		                                "address": "010.007.000.077"
		                            }
		                        ]
		                    }
		                ]
		            }
		        ]
		    }
		},
		{
		    "name": "sisal.environment.PORTCB2",
		    "type": "Struct",
		    "structuredValue": {
		        "envlist": [
		            {
		                "environment": "DEV",
		                "arealist": [
		                    {
		                        "area": "MI",
		                        "addresslist": [
		                            {
		                                "address": "10501"
		                            }
		                        ]
		                    },
		                    {
		                        "area": "RO",
		                        "addresslist": [
		                            {
		                                "address": "10501"
		                            }
		                        ]
		                    }
		                ]
		            },
		            {
		                "environment": "SIT",
		                "arealist": [
		                    {
		                        "area": "MI",
		                        "addresslist": [
		                            {
		                                "address": "10501"
		                            }
		                        ]
		                    },
		                    {
		                        "area": "RO",
		                        "addresslist": [
		                            {
		                                "address": "10501"
		                            }
		                        ]
		                    }
		                ]
		            },
		            {
		                "environment": "PRE_PROD",
		                "arealist": [
		                    {
		                        "area": "MI",
		                        "addresslist": [
		                            {
		                                "address": "10501"
		                            }
		                        ]
		                    },
		                    {
		                        "area": "RO",
		                        "addresslist": [
		                            {
		                                "address": "10501"
		                            }
		                        ]
		                    }
		                ]
		            },
		            {
		                "environment": "PROD",
		                "arealist": [
		                    {
		                        "area": "MI",
		                        "addresslist": [
		                            {
		                                "address": "22501"
		                            }
		                        ]
		                    },
		                    {
		                        "area": "RO",
		                        "addresslist": [
		                            {
		                                "address": "22501"
		                            }
		                        ]
		                    }
		                ]
		            }
		        ]
		    }
		}
	]
}